<?xml version="1.0" encoding="utf-8"?>
<!-- Generator: Adobe Illustrator 15.0.0, SVG Export Plug-In . SVG Version: 6.00 Build 0)  -->
<!DOCTYPE svg PUBLIC "-//W3C//DTD SVG 1.1//EN" "http://www.w3.org/Graphics/SVG/1.1/DTD/svg11.dtd">
<svg version="1.1" id="Layer_1" xmlns="http://www.w3.org/2000/svg" xmlns:xlink="http://www.w3.org/1999/xlink" x="0px" y="0px"
	 width="1024px" height="768px" viewBox="0 0 1024 768" enable-background="new 0 0 1024 768" xml:space="preserve">
<path fill="#FFFFFF" d="M532.324,386.98c-0.729-0.375-13.949-6.689-13.949-6.689v-3.877c1.388-1.148,2.339-2.699,2.339-4.41
	l0.136-1.359c1.016-0.055,1.972-1.24,2.206-2.832l0.021-0.126c0.254-1.729-0.437-3.265-1.546-3.429c-0.02-0.003-0.037,0.002-0.055,0
	l0.334-3.41c0-3.532-2.791-8.528-9.162-8.528s-9.162,4.996-9.162,8.528l0.335,3.41c-0.018,0.002-0.036-0.003-0.056,0
	c-1.109,0.164-1.8,1.699-1.545,3.429l0.021,0.126c0.233,1.59,1.19,2.777,2.206,2.832l0.132,1.359c0,1.711,0.955,3.262,2.342,4.41
	v3.877c0,0-13.174,6.172-13.951,6.689c-0.774,0.518-2.779,1.244-2.779,2.78v9.961h19.988l0.754-8.218h3.433l0.753,8.218h19.988
	v-9.961C535.105,388.225,533.05,387.357,532.324,386.98z M514.364,389.707h-3.433l-1.134-3.64h5.699L514.364,389.707z"/>
</svg>
